{
	"endpoints": [
		{
			"name": "Conversions API",
			"methods": [
				{
					"MethodName": "conversions/new",
					"Synopsis": "Register conversion goals resulting from a share.",
					"HTTPMethod": "POST",
					"URI": "/conversions/new",
					"RequiresOAuth": "N",
					"parameters": [
						{	
							"Name": "awesm_url",
							"Required": "Y",
							"Default": "",
							"Type": "string",
							"Description": "The awesm_id of the awe.sm link that led to this conversion, e.g. awe.sm_4kfyL."
						},
						{
							"Name": "conversion_type",
							"Required": "Y",
							"Default": "",
							"Type": "enumerated",
							"Description": "The type of conversion being registered.",
							"EnumeratedList": ["pageview","goal_1","goal_2","goal_3","goal_4","goal_5"]
						},
						{	
							"Name": "conversion_value",
							"Required": "Y",
							"Default": "",
							"Type": "integer",
							"Description": "The integer value of the conversion event. This value is ignored when type=pageview."
						},
						{
							"Name": "key",
							"Required": "Y",
							"Default": "",
							"Type": "string",
							"Description": "An arbitrary identifier you can supply to identify this individual conversion, such as your application's internal transaction id. 50 character max."
						},

						{
							"Name": "account_conversion_id",
							"Required": "N",
							"Default": "",
							"Type": "string",
							"Description": "An arbitrary identifier you can supply to identify this individual conversion, such as your application's internal transaction id. 50 character max."
						},
						{
							"Name": "account_user",
							"Required": "N",
							"Default": "",
							"Type": "string",
							"Description": "An arbitrary identifier you can supply to identify this user later, such as your application's internal user id. 50 character max."
						},
						{	
							"Name": "created_at",
							"Required": "N",
							"Default": "",
							"Type": "date",
							"Description": "A UNIX epoch timestamp of the time of conversion. Default is the time of the API request."
						},
						{	
							"Name": "ip",
							"Required": "N",
							"Default": "",
							"Type": "string",
							"Description": "The IP address of the user who is converting, e.g. 184.19.143.10"
						},
						{	
							"Name": "language",
							"Required": "N",
							"Default": "",
							"Type": "string",
							"Description": "The HTTP accept-language header sent by the user's browser."
						},
						{	
							"Name": "referrer",
							"Required": "N",
							"Default": "",
							"Type": "string",
							"Description": "The HTTP referrer header sent by the user's browser, i.e. the page they came from to get to the current page"
						},
						{	
							"Name": "session_id",
							"Required": "N",
							"Default": "",
							"Type": "string",
							"Description": "The session_id value from the _awesmsession cookie."
						},
						{	
							"Name": "user_agent",
							"Required": "N",
							"Default": "",
							"Type": "string",
							"Description": "The user-agent string of the converting user's browser"
						}
					]
				}
			]
		}
	]
}